<?xml version="1.0" encoding="UTF-8"?>
<symbol version="7" name="ila_tomasulo">
    <symboltype>BLOCK</symboltype>
    <timestamp>2017-7-9T1:34:2</timestamp>
    <pin polarity="Input" x="0" y="80" name="control[35:0]" />
    <pin polarity="Input" x="0" y="112" name="clk" />
    <pin polarity="Input" x="0" y="144" name="data[23:0]" />
    <pin polarity="Input" x="0" y="176" name="trig0[0:0]" />
    <pin polarity="Input" x="0" y="208" name="trig1[7:0]" />
    <pin polarity="Input" x="0" y="240" name="trig2[0:0]" />
    <pin polarity="Input" x="0" y="272" name="trig3[0:0]" />
    <graph>
        <text style="fontsize:40;fontname:Arial" x="32" y="32">ila_tomasulo</text>
        <rect width="256" x="32" y="32" height="672" />
        <line x2="32" y1="80" y2="80" style="linewidth:W" x1="0" />
        <attrtext style="fontsize:24;fontname:Arial" attrname="PinName" x="36" y="80" type="pin control[35:0]" />
        <line x2="32" y1="112" y2="112" x1="0" />
        <attrtext style="fontsize:24;fontname:Arial" attrname="PinName" x="36" y="112" type="pin clk" />
        <line x2="32" y1="144" y2="144" style="linewidth:W" x1="0" />
        <attrtext style="fontsize:24;fontname:Arial" attrname="PinName" x="36" y="144" type="pin data[23:0]" />
        <line x2="32" y1="176" y2="176" style="linewidth:W" x1="0" />
        <attrtext style="fontsize:24;fontname:Arial" attrname="PinName" x="36" y="176" type="pin trig0[0:0]" />
        <line x2="32" y1="208" y2="208" style="linewidth:W" x1="0" />
        <attrtext style="fontsize:24;fontname:Arial" attrname="PinName" x="36" y="208" type="pin trig1[7:0]" />
        <line x2="32" y1="240" y2="240" style="linewidth:W" x1="0" />
        <attrtext style="fontsize:24;fontname:Arial" attrname="PinName" x="36" y="240" type="pin trig2[0:0]" />
        <line x2="32" y1="272" y2="272" style="linewidth:W" x1="0" />
        <attrtext style="fontsize:24;fontname:Arial" attrname="PinName" x="36" y="272" type="pin trig3[0:0]" />
    </graph>
</symbol>
